## Interface: 11505
## Title: IAmAMerchant Classic (v2.3.0)
## Notes: Use "/iaam help" for further information.
## Version: 020300
## SavedVariables: IAAM_Account
## SavedVariablesPerCharacter: IAAM_Character
## Author: NukiWolf2

ChatThrottleLib.lua
IAAM_Debug.lua
IAAM_Events.lua
IAAM_Com.lua
IAAM_Link.lua
IAAM_Slash.lua
IAAM_Core.lua
IAAM_VendorWindow.xml
IAAM_MerchantTracker.xml